{
    "__inputs": [

    ],
    "__requires": [

    ],
    "annotations": {
        "list": [

        ]
    },
    "editable": false,
    "gnetId": null,
    "graphTooltip": 0,
    "hideControls": false,
    "id": null,
    "links": [

    ],
    "refresh": "",
    "rows": [
        {
            "collapse": false,
            "collapsed": false,
            "panels": [
                {
                    "cacheTimeout": null,
                    "colorBackground": false,
                    "colorValue": false,
                    "colors": [
                        "#299c46",
                        "rgba(237, 129, 40, 0.89)",
                        "#d44a3a"
                    ],
                    "datasource": "$datasource",
                    "format": "none",
                    "gauge": {
                        "maxValue": 100,
                        "minValue": 0,
                        "show": false,
                        "thresholdLabels": false,
                        "thresholdMarkers": true
                    },
                    "gridPos": {

                    },
                    "id": 2,
                    "interval": null,
                    "links": [

                    ],
                    "mappingType": 1,
                    "mappingTypes": [
                        {
                            "name": "value to text",
                            "value": 1
                        },
                        {
                            "name": "range to text",
                            "value": 2
                        }
                    ],
                    "maxDataPoints": 100,
                    "nullPointMode": "connected",
                    "nullText": null,
                    "postfix": "cores",
                    "postfixFontSize": "50%",
                    "prefix": "",
                    "prefixFontSize": "50%",
                    "rangeMaps": [
                        {
                            "from": "null",
                            "text": "N/A",
                            "to": "null"
                        }
                    ],
                    "span": 4,
                    "sparkline": {
                        "fillColor": "rgba(31, 118, 189, 0.18)",
                        "lineColor": "rgb(31, 120, 193)",
                        "show": true
                    },
                    "tableColumn": "",
                    "targets": [
                        {
                            "expr": "sum(rate(container_cpu_usage_seconds_total{job=\"kubelet\", metrics_path=\"/metrics/cadvisor\", cluster=\"$cluster\", container!=\"\", namespace=\"$namespace\", pod=~\"$statefulset.*\"}[3m]))",
                            "format": "time_series",
                            "intervalFactor": 2,
                            "legendFormat": "",
                            "refId": "A"
                        }
                    ],
                    "thresholds": "",
                    "title": "CPU",
                    "tooltip": {
                        "shared": false
                    },
                    "type": "singlestat",
                    "valueFontSize": "80%",
                    "valueMaps": [
                        {
                            "op": "=",
                            "text": "0",
                            "value": "null"
                        }
                    ],
                    "valueName": "current"
                },
                {
                    "cacheTimeout": null,
                    "colorBackground": false,
                    "colorValue": false,
                    "colors": [
                        "#299c46",
                        "rgba(237, 129, 40, 0.89)",
                        "#d44a3a"
                    ],
                    "datasource": "$datasource",
                    "format": "none",
                    "gauge": {
                        "maxValue": 100,
                        "minValue": 0,
                        "show": false,
                        "thresholdLabels": false,
                        "thresholdMarkers": true
                    },
                    "gridPos": {

                    },
                    "id": 3,
                    "interval": null,
                    "links": [

                    ],
                    "mappingType": 1,
                    "mappingTypes": [
                        {
                            "name": "value to text",
                            "value": 1
                        },
                        {
                            "name": "range to text",
                            "value": 2
                        }
                    ],
                    "maxDataPoints": 100,
                    "nullPointMode": "connected",
                    "nullText": null,
                    "postfix": "GB",
                    "postfixFontSize": "50%",
                    "prefix": "",
                    "prefixFontSize": "50%",
                    "rangeMaps": [
                        {
                            "from": "null",
                            "text": "N/A",
                            "to": "null"
                        }
                    ],
                    "span": 4,
                    "sparkline": {
                        "fillColor": "rgba(31, 118, 189, 0.18)",
                        "lineColor": "rgb(31, 120, 193)",
                        "show": true
                    },
                    "tableColumn": "",
                    "targets": [
                        {
                            "expr": "sum(container_memory_usage_bytes{job=\"kubelet\", metrics_path=\"/metrics/cadvisor\", cluster=\"$cluster\", container!=\"\", namespace=\"$namespace\", pod=~\"$statefulset.*\"}) / 1024^3",
                            "format": "time_series",
                            "intervalFactor": 2,
                            "legendFormat": "",
                            "refId": "A"
                        }
                    ],
                    "thresholds": "",
                    "title": "Memory",
                    "tooltip": {
                        "shared": false
                    },
                    "type": "singlestat",
                    "valueFontSize": "80%",
                    "valueMaps": [
                        {
                            "op": "=",
                            "text": "0",
                            "value": "null"
                        }
                    ],
                    "valueName": "current"
                },
                {
                    "cacheTimeout": null,
                    "colorBackground": false,
                    "colorValue": false,
                    "colors": [
                        "#299c46",
                        "rgba(237, 129, 40, 0.89)",
                        "#d44a3a"
                    ],
                    "datasource": "$datasource",
                    "format": "none",
                    "gauge": {
                        "maxValue": 100,
                        "minValue": 0,
                        "show": false,
                        "thresholdLabels": false,
                        "thresholdMarkers": true
                    },
                    "gridPos": {

                    },
                    "id": 4,
                    "interval": null,
                    "links": [

                    ],
                    "mappingType": 1,
                    "mappingTypes": [
                        {
                            "name": "value to text",
                            "value": 1
                        },
                        {
                            "name": "range to text",
                            "value": 2
                        }
                    ],
                    "maxDataPoints": 100,
                    "nullPointMode": "connected",
                    "nullText": null,
                    "postfix": "Bps",
                    "postfixFontSize": "50%",
                    "prefix": "",
                    "prefixFontSize": "50%",
                    "rangeMaps": [
                        {
                            "from": "null",
                            "text": "N/A",
                            "to": "null"
                        }
                    ],
                    "span": 4,
                    "sparkline": {
                        "fillColor": "rgba(31, 118, 189, 0.18)",
                        "lineColor": "rgb(31, 120, 193)",
                        "show": true
                    },
                    "tableColumn": "",
                    "targets": [
                        {
                            "expr": "sum(rate(container_network_transmit_bytes_total{job=\"kubelet\", metrics_path=\"/metrics/cadvisor\", cluster=\"$cluster\", namespace=\"$namespace\", pod=~\"$statefulset.*\"}[3m])) + sum(rate(container_network_receive_bytes_total{job=\"kubelet\", metrics_path=\"/metrics/cadvisor\", cluster=\"$cluster\", namespace=\"$namespace\",pod=~\"$statefulset.*\"}[3m]))",
                            "format": "time_series",
                            "intervalFactor": 2,
                            "legendFormat": "",
                            "refId": "A"
                        }
                    ],
                    "thresholds": "",
                    "title": "Network",
                    "tooltip": {
                        "shared": false
                    },
                    "type": "singlestat",
                    "valueFontSize": "80%",
                    "valueMaps": [
                        {
                            "op": "=",
                            "text": "0",
                            "value": "null"
                        }
                    ],
                    "valueName": "current"
                }
            ],
            "repeat": null,
            "repeatIteration": null,
            "repeatRowId": null,
            "showTitle": false,
            "title": "Dashboard Row",
            "titleSize": "h6",
            "type": "row"
        },
        {
            "collapse": false,
            "collapsed": false,
            "height": "100px",
            "panels": [
                {
                    "cacheTimeout": null,
                    "colorBackground": false,
                    "colorValue": false,
                    "colors": [
                        "#299c46",
                        "rgba(237, 129, 40, 0.89)",
                        "#d44a3a"
                    ],
                    "datasource": "$datasource",
                    "format": "none",
                    "gauge": {
                        "maxValue": 100,
                        "minValue": 0,
                        "show": false,
                        "thresholdLabels": false,
                        "thresholdMarkers": true
                    },
                    "gridPos": {

                    },
                    "id": 5,
                    "interval": null,
                    "links": [

                    ],
                    "mappingType": 1,
                    "mappingTypes": [
                        {
                            "name": "value to text",
                            "value": 1
                        },
                        {
                            "name": "range to text",
                            "value": 2
                        }
                    ],
                    "maxDataPoints": 100,
                    "nullPointMode": "connected",
                    "nullText": null,
                    "postfix": "",
                    "postfixFontSize": "50%",
                    "prefix": "",
                    "prefixFontSize": "50%",
                    "rangeMaps": [
                        {
                            "from": "null",
                            "text": "N/A",
                            "to": "null"
                        }
                    ],
                    "span": 3,
                    "sparkline": {
                        "fillColor": "rgba(31, 118, 189, 0.18)",
                        "full": false,
                        "lineColor": "rgb(31, 120, 193)",
                        "show": false
                    },
                    "tableColumn": "",
                    "targets": [
                        {
                            "expr": "max(kube_statefulset_replicas{job=\"kube-state-metrics\", cluster=\"$cluster\", namespace=\"$namespace\", statefulset=\"$statefulset\"}) without (instance, pod)",
                            "format": "time_series",
                            "intervalFactor": 2,
                            "legendFormat": "",
                            "refId": "A"
                        }
                    ],
                    "thresholds": "",
                    "title": "Desired Replicas",
                    "tooltip": {
                        "shared": false
                    },
                    "type": "singlestat",
                    "valueFontSize": "80%",
                    "valueMaps": [
                        {
                            "op": "=",
                            "text": "0",
                            "value": "null"
                        }
                    ],
                    "valueName": "current"
                },
                {
                    "cacheTimeout": null,
                    "colorBackground": false,
                    "colorValue": false,
                    "colors": [
                        "#299c46",
                        "rgba(237, 129, 40, 0.89)",
                        "#d44a3a"
                    ],
                    "datasource": "$datasource",
                    "format": "none",
                    "gauge": {
                        "maxValue": 100,
                        "minValue": 0,
                        "show": false,
                        "thresholdLabels": false,
                        "thresholdMarkers": true
                    },
                    "gridPos": {

                    },
                    "id": 6,
                    "interval": null,
                    "links": [

                    ],
                    "mappingType": 1,
                    "mappingTypes": [
                        {
                            "name": "value to text",
                            "value": 1
                        },
                        {
                            "name": "range to text",
                            "value": 2
                        }
                    ],
                    "maxDataPoints": 100,
                    "nullPointMode": "connected",
                    "nullText": null,
                    "postfix": "",
                    "postfixFontSize": "50%",
                    "prefix": "",
                    "prefixFontSize": "50%",
                    "rangeMaps": [
                        {
                            "from": "null",
                            "text": "N/A",
                            "to": "null"
                        }
                    ],
                    "span": 3,
                    "sparkline": {
                        "fillColor": "rgba(31, 118, 189, 0.18)",
                        "full": false,
                        "lineColor": "rgb(31, 120, 193)",
                        "show": false
                    },
                    "tableColumn": "",
                    "targets": [
                        {
                            "expr": "min(kube_statefulset_status_replicas_current{job=\"kube-state-metrics\", cluster=\"$cluster\", namespace=\"$namespace\", statefulset=\"$statefulset\"}) without (instance, pod)",
                            "format": "time_series",
                            "intervalFactor": 2,
                            "legendFormat": "",
                            "refId": "A"
                        }
                    ],
                    "thresholds": "",
                    "title": "Replicas of current version",
                    "tooltip": {
                        "shared": false
                    },
                    "type": "singlestat",
                    "valueFontSize": "80%",
                    "valueMaps": [
                        {
                            "op": "=",
                            "text": "0",
                            "value": "null"
                        }
                    ],
                    "valueName": "current"
                },
                {
                    "cacheTimeout": null,
                    "colorBackground": false,
                    "colorValue": false,
                    "colors": [
                        "#299c46",
                        "rgba(237, 129, 40, 0.89)",
                        "#d44a3a"
                    ],
                    "datasource": "$datasource",
                    "format": "none",
                    "gauge": {
                        "maxValue": 100,
                        "minValue": 0,
                        "show": false,
                        "thresholdLabels": false,
                        "thresholdMarkers": true
                    },
                    "gridPos": {

                    },
                    "id": 7,
                    "interval": null,
                    "links": [

                    ],
                    "mappingType": 1,
                    "mappingTypes": [
                        {
                            "name": "value to text",
                            "value": 1
                        },
                        {
                            "name": "range to text",
                            "value": 2
                        }
                    ],
                    "maxDataPoints": 100,
                    "nullPointMode": "connected",
                    "nullText": null,
                    "postfix": "",
                    "postfixFontSize": "50%",
                    "prefix": "",
                    "prefixFontSize": "50%",
                    "rangeMaps": [
                        {
                            "from": "null",
                            "text": "N/A",
                            "to": "null"
                        }
                    ],
                    "span": 3,
                    "sparkline": {
                        "fillColor": "rgba(31, 118, 189, 0.18)",
                        "full": false,
                        "lineColor": "rgb(31, 120, 193)",
                        "show": false
                    },
                    "tableColumn": "",
                    "targets": [
                        {
                            "expr": "max(kube_statefulset_status_observed_generation{job=\"kube-state-metrics\", cluster=\"$cluster\", namespace=\"$namespace\", statefulset=\"$statefulset\"}) without (instance, pod)",
                            "format": "time_series",
                            "intervalFactor": 2,
                            "legendFormat": "",
                            "refId": "A"
                        }
                    ],
                    "thresholds": "",
                    "title": "Observed Generation",
                    "tooltip": {
                        "shared": false
                    },
                    "type": "singlestat",
                    "valueFontSize": "80%",
                    "valueMaps": [
                        {
                            "op": "=",
                            "text": "0",
                            "value": "null"
                        }
                    ],
                    "valueName": "current"
                },
                {
                    "cacheTimeout": null,
                    "colorBackground": false,
                    "colorValue": false,
                    "colors": [
                        "#299c46",
                        "rgba(237, 129, 40, 0.89)",
                        "#d44a3a"
                    ],
                    "datasource": "$datasource",
                    "format": "none",
                    "gauge": {
                        "maxValue": 100,
                        "minValue": 0,
                        "show": false,
                        "thresholdLabels": false,
                        "thresholdMarkers": true
                    },
                    "gridPos": {

                    },
                    "id": 8,
                    "interval": null,
                    "links": [

                    ],
                    "mappingType": 1,
                    "mappingTypes": [
                        {
                            "name": "value to text",
                            "value": 1
                        },
                        {
                            "name": "range to text",
                            "value": 2
                        }
                    ],
                    "maxDataPoints": 100,
                    "nullPointMode": "connected",
                    "nullText": null,
                    "postfix": "",
                    "postfixFontSize": "50%",
                    "prefix": "",
                    "prefixFontSize": "50%",
                    "rangeMaps": [
                        {
                            "from": "null",
                            "text": "N/A",
                            "to": "null"
                        }
                    ],
                    "span": 3,
                    "sparkline": {
                        "fillColor": "rgba(31, 118, 189, 0.18)",
                        "full": false,
                        "lineColor": "rgb(31, 120, 193)",
                        "show": false
                    },
                    "tableColumn": "",
                    "targets": [
                        {
                            "expr": "max(kube_statefulset_metadata_generation{job=\"kube-state-metrics\", statefulset=\"$statefulset\", cluster=\"$cluster\", namespace=\"$namespace\"}) without (instance, pod)",
                            "format": "time_series",
                            "intervalFactor": 2,
                            "legendFormat": "",
                            "refId": "A"
                        }
                    ],
                    "thresholds": "",
                    "title": "Metadata Generation",
                    "tooltip": {
                        "shared": false
                    },
                    "type": "singlestat",
                    "valueFontSize": "80%",
                    "valueMaps": [
                        {
                            "op": "=",
                            "text": "0",
                            "value": "null"
                        }
                    ],
                    "valueName": "current"
                }
            ],
            "repeat": null,
            "repeatIteration": null,
            "repeatRowId": null,
            "showTitle": false,
            "title": "Dashboard Row",
            "titleSize": "h6",
            "type": "row"
        },
        {
            "collapse": false,
            "collapsed": false,
            "panels": [
                {
                    "aliasColors": {

                    },
                    "bars": false,
                    "dashLength": 10,
                    "dashes": false,
                    "datasource": "$datasource",
                    "fill": 1,
                    "fillGradient": 0,
                    "gridPos": {

                    },
                    "id": 9,
                    "legend": {
                        "alignAsTable": false,
                        "avg": false,
                        "current": false,
                        "max": false,
                        "min": false,
                        "rightSide": false,
                        "show": true,
                        "sideWidth": null,
                        "total": false,
                        "values": false
                    },
                    "lines": true,
                    "linewidth": 1,
                    "links": [

                    ],
                    "nullPointMode": "null",
                    "percentage": false,
                    "pointradius": 5,
                    "points": false,
                    "renderer": "flot",
                    "repeat": null,
                    "seriesOverrides": [

                    ],
                    "spaceLength": 10,
                    "stack": false,
                    "steppedLine": false,
                    "targets": [
                        {
                            "expr": "max(kube_statefulset_replicas{job=\"kube-state-metrics\", statefulset=\"$statefulset\", cluster=\"$cluster\", namespace=\"$namespace\"}) without (instance, pod)",
                            "format": "time_series",
                            "intervalFactor": 2,
                            "legendFormat": "replicas specified",
                            "refId": "A"
                        },
                        {
                            "expr": "max(kube_statefulset_status_replicas{job=\"kube-state-metrics\", statefulset=\"$statefulset\", cluster=\"$cluster\", namespace=\"$namespace\"}) without (instance, pod)",
                            "format": "time_series",
                            "intervalFactor": 2,
                            "legendFormat": "replicas created",
                            "refId": "B"
                        },
                        {
                            "expr": "min(kube_statefulset_status_replicas_ready{job=\"kube-state-metrics\", statefulset=\"$statefulset\", cluster=\"$cluster\", namespace=\"$namespace\"}) without (instance, pod)",
                            "format": "time_series",
                            "intervalFactor": 2,
                            "legendFormat": "ready",
                            "refId": "C"
                        },
                        {
                            "expr": "min(kube_statefulset_status_replicas_current{job=\"kube-state-metrics\", statefulset=\"$statefulset\", cluster=\"$cluster\", namespace=\"$namespace\"}) without (instance, pod)",
                            "format": "time_series",
                            "intervalFactor": 2,
                            "legendFormat": "replicas of current version",
                            "refId": "D"
                        },
                        {
                            "expr": "min(kube_statefulset_status_replicas_updated{job=\"kube-state-metrics\", statefulset=\"$statefulset\", cluster=\"$cluster\", namespace=\"$namespace\"}) without (instance, pod)",
                            "format": "time_series",
                            "intervalFactor": 2,
                            "legendFormat": "updated",
                            "refId": "E"
                        }
                    ],
                    "thresholds": [

                    ],
                    "timeFrom": null,
                    "timeShift": null,
                    "title": "Replicas",
                    "tooltip": {
                        "shared": false,
                        "sort": 0,
                        "value_type": "individual"
                    },
                    "type": "graph",
                    "xaxis": {
                        "buckets": null,
                        "mode": "time",
                        "name": null,
                        "show": true,
                        "values": [

                        ]
                    },
                    "yaxes": [
                        {
                            "format": "short",
                            "label": null,
                            "logBase": 1,
                            "max": null,
                            "min": null,
                            "show": true
                        },
                        {
                            "format": "short",
                            "label": null,
                            "logBase": 1,
                            "max": null,
                            "min": null,
                            "show": true
                        }
                    ]
                }
            ],
            "repeat": null,
            "repeatIteration": null,
            "repeatRowId": null,
            "showTitle": false,
            "title": "Dashboard Row",
            "titleSize": "h6",
            "type": "row"
        }
    ],
    "schemaVersion": 14,
    "style": "dark",
    "tags": [
        "kubernetes-mixin"
    ],
    "templating": {
        "list": [
            {
                "current": {
                    "text": "default",
                    "value": "default"
                },
                "hide": 0,
                "label": null,
                "name": "datasource",
                "options": [

                ],
                "query": "prometheus",
                "refresh": 1,
                "regex": "",
                "type": "datasource"
            },
            {
                "allValue": null,
                "current": {

                },
                "datasource": "$datasource",
                "hide": 0,
                "includeAll": false,
                "label": "cluster",
                "multi": false,
                "name": "cluster",
                "options": [

                ],
                "query": "label_values(kube_statefulset_metadata_generation, cluster)",
                "refresh": 2,
                "regex": "",
                "sort": 1,
                "tagValuesQuery": "",
                "tags": [

                ],
                "tagsQuery": "",
                "type": "query",
                "useTags": false
            },
            {
                "allValue": null,
                "current": {

                },
                "datasource": "$datasource",
                "hide": 0,
                "includeAll": false,
                "label": "Namespace",
                "multi": false,
                "name": "namespace",
                "options": [

                ],
                "query": "label_values(kube_statefulset_metadata_generation{job=\"kube-state-metrics\", cluster=\"$cluster\"}, namespace)",
                "refresh": 2,
                "regex": "",
                "sort": 1,
                "tagValuesQuery": "",
                "tags": [

                ],
                "tagsQuery": "",
                "type": "query",
                "useTags": false
            },
            {
                "allValue": null,
                "current": {

                },
                "datasource": "$datasource",
                "hide": 0,
                "includeAll": false,
                "label": "Name",
                "multi": false,
                "name": "statefulset",
                "options": [

                ],
                "query": "label_values(kube_statefulset_metadata_generation{job=\"kube-state-metrics\", cluster=\"$cluster\", namespace=\"$namespace\"}, statefulset)",
                "refresh": 2,
                "regex": "",
                "sort": 1,
                "tagValuesQuery": "",
                "tags": [

                ],
                "tagsQuery": "",
                "type": "query",
                "useTags": false
            }
        ]
    },
    "time": {
        "from": "now-1h",
        "to": "now"
    },
    "timepicker": {
        "refresh_intervals": [
            "5s",
            "10s",
            "30s",
            "1m",
            "5m",
            "15m",
            "30m",
            "1h",
            "2h",
            "1d"
        ],
        "time_options": [
            "5m",
            "15m",
            "1h",
            "6h",
            "12h",
            "24h",
            "2d",
            "7d",
            "30d"
        ]
    },
    "timezone": "utc",
    "title": "Kubernetes / StatefulSets",
    "uid": "a31c1f46e6f727cb37c0d731a7245005",
    "version": 0
}
